module reinvest

go 1.15

require (
	github.com/ethereum/go-ethereum v1.10.1
	github.com/fatih/color v1.10.0
	github.com/gizak/termui/v3 v3.1.0 // indirect
	github.com/google/wire v0.5.0
	github.com/gosuri/uilive v0.0.4
	github.com/manifoldco/promptui v0.8.0
	github.com/shopspring/decimal v1.2.0
	golang.org/x/crypto v0.0.0-20200622213623-75b288015ac9
	golang.org/x/sys v0.0.0-20210324051608-47abb6519492 // indirect
)
